{"componentChunkName":"component---node-modules-gatsby-theme-autokin-docs-src-components-template-js","path":"/features/json-schema/","webpackCompilationHash":"87806a864a164aad0555","result":{"data":{"site":{"pathPrefix":"/docs","siteMetadata":{"title":"Autokin Automation","description":"Documentation on how to use Autokin","twitterHandle":"autokinjs"}},"file":{"childMarkdownRemark":null,"childMdx":{"frontmatter":{"title":"JSON Schema Comparison","description":"Validation of REST API response using JSON Schema"},"headings":[],"body":"function _extends() { _extends = Object.assign || function (target) { for (var i = 1; i < arguments.length; i++) { var source = arguments[i]; for (var key in source) { if (Object.prototype.hasOwnProperty.call(source, key)) { target[key] = source[key]; } } } return target; }; return _extends.apply(this, arguments); }\n\nfunction _objectWithoutProperties(source, excluded) { if (source == null) return {}; var target = _objectWithoutPropertiesLoose(source, excluded); var key, i; if (Object.getOwnPropertySymbols) { var sourceSymbolKeys = Object.getOwnPropertySymbols(source); for (i = 0; i < sourceSymbolKeys.length; i++) { key = sourceSymbolKeys[i]; if (excluded.indexOf(key) >= 0) continue; if (!Object.prototype.propertyIsEnumerable.call(source, key)) continue; target[key] = source[key]; } } return target; }\n\nfunction _objectWithoutPropertiesLoose(source, excluded) { if (source == null) return {}; var target = {}; var sourceKeys = Object.keys(source); var key, i; for (i = 0; i < sourceKeys.length; i++) { key = sourceKeys[i]; if (excluded.indexOf(key) >= 0) continue; target[key] = source[key]; } return target; }\n\n/* @jsx mdx */\nvar _frontmatter = {\n  \"title\": \"JSON Schema Comparison\",\n  \"description\": \"Validation of REST API response using JSON Schema\"\n};\n\nvar makeShortcode = function makeShortcode(name) {\n  return function MDXDefaultShortcode(props) {\n    console.warn(\"Component \" + name + \" was not imported, exported, or provided by MDXProvider as global scope\");\n    return mdx(\"div\", props);\n  };\n};\n\nvar layoutProps = {\n  _frontmatter: _frontmatter\n};\nvar MDXLayout = \"wrapper\";\nreturn function MDXContent(_ref) {\n  var components = _ref.components,\n      props = _objectWithoutProperties(_ref, [\"components\"]);\n\n  return mdx(MDXLayout, _extends({}, layoutProps, props, {\n    components: components,\n    mdxType: \"MDXLayout\"\n  }), mdx(\"p\", null, \"It is important that contracts among consumer of the API ensure that the data expected are always correct. With this JSON Schema comparison, we can add assertion on the response data if it conforms to expected schema. We can store the schema to a file and use that as expected schema.\"), mdx(\"div\", {\n    \"className\": \"gatsby-highlight\",\n    \"data-language\": \"http\"\n  }, mdx(\"pre\", _extends({\n    parentName: \"div\"\n  }, {\n    \"style\": {\n      \"counterReset\": \"linenumber NaN\"\n    },\n    \"className\": \"language-http line-numbers\"\n  }), mdx(\"code\", _extends({\n    parentName: \"pre\"\n  }, {\n    \"className\": \"language-http\"\n  }), \"    GET https://reqres.in/api/users?page=2\\n\\n    Response:\\n    {\\n    \\\"page\\\": 2,\\n    \\\"per_page\\\": 3,\\n    \\\"total\\\": 12,\\n    \\\"total_pages\\\": 4,\\n    \\\"data\\\": [\\n        {\\n            \\\"id\\\": 4,\\n            \\\"email\\\": \\\"eve.holt@reqres.in\\\",\\n            \\\"first_name\\\": \\\"Eve\\\",\\n            \\\"last_name\\\": \\\"Holt\\\",\\n            \\\"avatar\\\": \\\"https://s3.amazonaws.com/uifaces/faces/twitter/marcoramires/128.jpg\\\"\\n        },\\n        {\\n            \\\"id\\\": 5,\\n            \\\"email\\\": \\\"charles.morris@reqres.in\\\",\\n            \\\"first_name\\\": \\\"Charles\\\",\\n            \\\"last_name\\\": \\\"Morris\\\",\\n            \\\"avatar\\\": \\\"https://s3.amazonaws.com/uifaces/faces/twitter/stephenmoon/128.jpg\\\"\\n        },\\n        {\\n            \\\"id\\\": 6,\\n            \\\"email\\\": \\\"tracey.ramos@reqres.in\\\",\\n            \\\"first_name\\\": \\\"Tracey\\\",\\n            \\\"last_name\\\": \\\"Ramos\\\",\\n            \\\"avatar\\\": \\\"https://s3.amazonaws.com/uifaces/faces/twitter/bigmancho/128.jpg\\\"\\n        }\\n    ]\\n}\"), mdx(\"span\", _extends({\n    parentName: \"pre\"\n  }, {\n    \"aria-hidden\": \"true\",\n    \"className\": \"line-numbers-rows\",\n    \"style\": {\n      \"whiteSpace\": \"normal\",\n      \"width\": \"auto\",\n      \"left\": \"0\"\n    }\n  }), mdx(\"span\", {\n    parentName: \"span\"\n  }), mdx(\"span\", {\n    parentName: \"span\"\n  }), mdx(\"span\", {\n    parentName: \"span\"\n  }), mdx(\"span\", {\n    parentName: \"span\"\n  }), mdx(\"span\", {\n    parentName: \"span\"\n  }), mdx(\"span\", {\n    parentName: \"span\"\n  }), mdx(\"span\", {\n    parentName: \"span\"\n  }), mdx(\"span\", {\n    parentName: \"span\"\n  }), mdx(\"span\", {\n    parentName: \"span\"\n  }), mdx(\"span\", {\n    parentName: \"span\"\n  }), mdx(\"span\", {\n    parentName: \"span\"\n  }), mdx(\"span\", {\n    parentName: \"span\"\n  }), mdx(\"span\", {\n    parentName: \"span\"\n  }), mdx(\"span\", {\n    parentName: \"span\"\n  }), mdx(\"span\", {\n    parentName: \"span\"\n  }), mdx(\"span\", {\n    parentName: \"span\"\n  }), mdx(\"span\", {\n    parentName: \"span\"\n  }), mdx(\"span\", {\n    parentName: \"span\"\n  }), mdx(\"span\", {\n    parentName: \"span\"\n  }), mdx(\"span\", {\n    parentName: \"span\"\n  }), mdx(\"span\", {\n    parentName: \"span\"\n  }), mdx(\"span\", {\n    parentName: \"span\"\n  }), mdx(\"span\", {\n    parentName: \"span\"\n  }), mdx(\"span\", {\n    parentName: \"span\"\n  }), mdx(\"span\", {\n    parentName: \"span\"\n  }), mdx(\"span\", {\n    parentName: \"span\"\n  }), mdx(\"span\", {\n    parentName: \"span\"\n  }), mdx(\"span\", {\n    parentName: \"span\"\n  }), mdx(\"span\", {\n    parentName: \"span\"\n  }), mdx(\"span\", {\n    parentName: \"span\"\n  }), mdx(\"span\", {\n    parentName: \"span\"\n  }), mdx(\"span\", {\n    parentName: \"span\"\n  })))), mdx(\"p\", null, mdx(\"strong\", {\n    parentName: \"p\"\n  }, \"Expected Login Response Schema\")), mdx(\"p\", null, mdx(\"code\", _extends({\n    parentName: \"p\"\n  }, {\n    \"className\": \"language-text\"\n  }), \"feature/schema/reqres-response-schema.json\")), mdx(\"div\", {\n    \"className\": \"gatsby-highlight\",\n    \"data-language\": \"json\"\n  }, mdx(\"pre\", _extends({\n    parentName: \"div\"\n  }, {\n    \"style\": {\n      \"counterReset\": \"linenumber NaN\"\n    },\n    \"className\": \"language-json line-numbers\"\n  }), mdx(\"code\", _extends({\n    parentName: \"pre\"\n  }, {\n    \"className\": \"language-json\"\n  }), mdx(\"span\", _extends({\n    parentName: \"code\"\n  }, {\n    \"className\": \"token punctuation\"\n  }), \"{\"), \"\\n    \", mdx(\"span\", _extends({\n    parentName: \"code\"\n  }, {\n    \"className\": \"token property\"\n  }), \"\\\"definitions\\\"\"), mdx(\"span\", _extends({\n    parentName: \"code\"\n  }, {\n    \"className\": \"token operator\"\n  }), \":\"), \" \", mdx(\"span\", _extends({\n    parentName: \"code\"\n  }, {\n    \"className\": \"token punctuation\"\n  }), \"{\"), mdx(\"span\", _extends({\n    parentName: \"code\"\n  }, {\n    \"className\": \"token punctuation\"\n  }), \"}\"), mdx(\"span\", _extends({\n    parentName: \"code\"\n  }, {\n    \"className\": \"token punctuation\"\n  }), \",\"), \"\\n    \", mdx(\"span\", _extends({\n    parentName: \"code\"\n  }, {\n    \"className\": \"token property\"\n  }), \"\\\"$schema\\\"\"), mdx(\"span\", _extends({\n    parentName: \"code\"\n  }, {\n    \"className\": \"token operator\"\n  }), \":\"), \" \", mdx(\"span\", _extends({\n    parentName: \"code\"\n  }, {\n    \"className\": \"token string\"\n  }), \"\\\"http://json-schema.org/draft-07/schema#\\\"\"), mdx(\"span\", _extends({\n    parentName: \"code\"\n  }, {\n    \"className\": \"token punctuation\"\n  }), \",\"), \"\\n    \", mdx(\"span\", _extends({\n    parentName: \"code\"\n  }, {\n    \"className\": \"token property\"\n  }), \"\\\"$id\\\"\"), mdx(\"span\", _extends({\n    parentName: \"code\"\n  }, {\n    \"className\": \"token operator\"\n  }), \":\"), \" \", mdx(\"span\", _extends({\n    parentName: \"code\"\n  }, {\n    \"className\": \"token string\"\n  }), \"\\\"http://example.com/root.json\\\"\"), mdx(\"span\", _extends({\n    parentName: \"code\"\n  }, {\n    \"className\": \"token punctuation\"\n  }), \",\"), \"\\n    \", mdx(\"span\", _extends({\n    parentName: \"code\"\n  }, {\n    \"className\": \"token property\"\n  }), \"\\\"type\\\"\"), mdx(\"span\", _extends({\n    parentName: \"code\"\n  }, {\n    \"className\": \"token operator\"\n  }), \":\"), \" \", mdx(\"span\", _extends({\n    parentName: \"code\"\n  }, {\n    \"className\": \"token string\"\n  }), \"\\\"object\\\"\"), mdx(\"span\", _extends({\n    parentName: \"code\"\n  }, {\n    \"className\": \"token punctuation\"\n  }), \",\"), \"\\n    \", mdx(\"span\", _extends({\n    parentName: \"code\"\n  }, {\n    \"className\": \"token property\"\n  }), \"\\\"title\\\"\"), mdx(\"span\", _extends({\n    parentName: \"code\"\n  }, {\n    \"className\": \"token operator\"\n  }), \":\"), \" \", mdx(\"span\", _extends({\n    parentName: \"code\"\n  }, {\n    \"className\": \"token string\"\n  }), \"\\\"The Root Schema\\\"\"), mdx(\"span\", _extends({\n    parentName: \"code\"\n  }, {\n    \"className\": \"token punctuation\"\n  }), \",\"), \"\\n    \", mdx(\"span\", _extends({\n    parentName: \"code\"\n  }, {\n    \"className\": \"token property\"\n  }), \"\\\"required\\\"\"), mdx(\"span\", _extends({\n    parentName: \"code\"\n  }, {\n    \"className\": \"token operator\"\n  }), \":\"), \" \", mdx(\"span\", _extends({\n    parentName: \"code\"\n  }, {\n    \"className\": \"token punctuation\"\n  }), \"[\"), \"\\n        \", mdx(\"span\", _extends({\n    parentName: \"code\"\n  }, {\n    \"className\": \"token string\"\n  }), \"\\\"page\\\"\"), mdx(\"span\", _extends({\n    parentName: \"code\"\n  }, {\n    \"className\": \"token punctuation\"\n  }), \",\"), \"\\n        \", mdx(\"span\", _extends({\n    parentName: \"code\"\n  }, {\n    \"className\": \"token string\"\n  }), \"\\\"max_page\\\"\"), mdx(\"span\", _extends({\n    parentName: \"code\"\n  }, {\n    \"className\": \"token punctuation\"\n  }), \",\"), \"\\n        \", mdx(\"span\", _extends({\n    parentName: \"code\"\n  }, {\n    \"className\": \"token string\"\n  }), \"\\\"per_page\\\"\"), mdx(\"span\", _extends({\n    parentName: \"code\"\n  }, {\n    \"className\": \"token punctuation\"\n  }), \",\"), \"\\n        \", mdx(\"span\", _extends({\n    parentName: \"code\"\n  }, {\n    \"className\": \"token string\"\n  }), \"\\\"total\\\"\"), mdx(\"span\", _extends({\n    parentName: \"code\"\n  }, {\n    \"className\": \"token punctuation\"\n  }), \",\"), \"\\n        \", mdx(\"span\", _extends({\n    parentName: \"code\"\n  }, {\n    \"className\": \"token string\"\n  }), \"\\\"total_pages\\\"\"), mdx(\"span\", _extends({\n    parentName: \"code\"\n  }, {\n    \"className\": \"token punctuation\"\n  }), \",\"), \"\\n        \", mdx(\"span\", _extends({\n    parentName: \"code\"\n  }, {\n    \"className\": \"token string\"\n  }), \"\\\"data\\\"\"), \"\\n    \", mdx(\"span\", _extends({\n    parentName: \"code\"\n  }, {\n    \"className\": \"token punctuation\"\n  }), \"]\"), mdx(\"span\", _extends({\n    parentName: \"code\"\n  }, {\n    \"className\": \"token punctuation\"\n  }), \",\"), \"\\n    ....\\n               \", mdx(\"span\", _extends({\n    parentName: \"code\"\n  }, {\n    \"className\": \"token property\"\n  }), \"\\\"items\\\"\"), mdx(\"span\", _extends({\n    parentName: \"code\"\n  }, {\n    \"className\": \"token operator\"\n  }), \":\"), \" \", mdx(\"span\", _extends({\n    parentName: \"code\"\n  }, {\n    \"className\": \"token punctuation\"\n  }), \"{\"), \"\\n                \", mdx(\"span\", _extends({\n    parentName: \"code\"\n  }, {\n    \"className\": \"token property\"\n  }), \"\\\"$id\\\"\"), mdx(\"span\", _extends({\n    parentName: \"code\"\n  }, {\n    \"className\": \"token operator\"\n  }), \":\"), \" \", mdx(\"span\", _extends({\n    parentName: \"code\"\n  }, {\n    \"className\": \"token string\"\n  }), \"\\\"#/properties/data/items\\\"\"), mdx(\"span\", _extends({\n    parentName: \"code\"\n  }, {\n    \"className\": \"token punctuation\"\n  }), \",\"), \"\\n                \", mdx(\"span\", _extends({\n    parentName: \"code\"\n  }, {\n    \"className\": \"token property\"\n  }), \"\\\"type\\\"\"), mdx(\"span\", _extends({\n    parentName: \"code\"\n  }, {\n    \"className\": \"token operator\"\n  }), \":\"), \" \", mdx(\"span\", _extends({\n    parentName: \"code\"\n  }, {\n    \"className\": \"token string\"\n  }), \"\\\"object\\\"\"), mdx(\"span\", _extends({\n    parentName: \"code\"\n  }, {\n    \"className\": \"token punctuation\"\n  }), \",\"), \"\\n                \", mdx(\"span\", _extends({\n    parentName: \"code\"\n  }, {\n    \"className\": \"token property\"\n  }), \"\\\"title\\\"\"), mdx(\"span\", _extends({\n    parentName: \"code\"\n  }, {\n    \"className\": \"token operator\"\n  }), \":\"), \" \", mdx(\"span\", _extends({\n    parentName: \"code\"\n  }, {\n    \"className\": \"token string\"\n  }), \"\\\"The Items Schema\\\"\"), mdx(\"span\", _extends({\n    parentName: \"code\"\n  }, {\n    \"className\": \"token punctuation\"\n  }), \",\"), \"\\n                \", mdx(\"span\", _extends({\n    parentName: \"code\"\n  }, {\n    \"className\": \"token property\"\n  }), \"\\\"required\\\"\"), mdx(\"span\", _extends({\n    parentName: \"code\"\n  }, {\n    \"className\": \"token operator\"\n  }), \":\"), \" \", mdx(\"span\", _extends({\n    parentName: \"code\"\n  }, {\n    \"className\": \"token punctuation\"\n  }), \"[\"), \"\\n                    \", mdx(\"span\", _extends({\n    parentName: \"code\"\n  }, {\n    \"className\": \"token string\"\n  }), \"\\\"id\\\"\"), mdx(\"span\", _extends({\n    parentName: \"code\"\n  }, {\n    \"className\": \"token punctuation\"\n  }), \",\"), \"\\n                    \", mdx(\"span\", _extends({\n    parentName: \"code\"\n  }, {\n    \"className\": \"token string\"\n  }), \"\\\"email\\\"\"), mdx(\"span\", _extends({\n    parentName: \"code\"\n  }, {\n    \"className\": \"token punctuation\"\n  }), \",\"), \"\\n                    \", mdx(\"span\", _extends({\n    parentName: \"code\"\n  }, {\n    \"className\": \"token string\"\n  }), \"\\\"first_name\\\"\"), mdx(\"span\", _extends({\n    parentName: \"code\"\n  }, {\n    \"className\": \"token punctuation\"\n  }), \",\"), \"\\n                    \", mdx(\"span\", _extends({\n    parentName: \"code\"\n  }, {\n    \"className\": \"token string\"\n  }), \"\\\"last_name\\\"\"), mdx(\"span\", _extends({\n    parentName: \"code\"\n  }, {\n    \"className\": \"token punctuation\"\n  }), \",\"), \"\\n                    \", mdx(\"span\", _extends({\n    parentName: \"code\"\n  }, {\n    \"className\": \"token string\"\n  }), \"\\\"avatar\\\"\"), \"\\n                \", mdx(\"span\", _extends({\n    parentName: \"code\"\n  }, {\n    \"className\": \"token punctuation\"\n  }), \"]\"), mdx(\"span\", _extends({\n    parentName: \"code\"\n  }, {\n    \"className\": \"token punctuation\"\n  }), \",\"), \"\\n                \", mdx(\"span\", _extends({\n    parentName: \"code\"\n  }, {\n    \"className\": \"token property\"\n  }), \"\\\"properties\\\"\"), mdx(\"span\", _extends({\n    parentName: \"code\"\n  }, {\n    \"className\": \"token operator\"\n  }), \":\"), \" \", mdx(\"span\", _extends({\n    parentName: \"code\"\n  }, {\n    \"className\": \"token punctuation\"\n  }), \"{\"), \"\\n                    \", mdx(\"span\", _extends({\n    parentName: \"code\"\n  }, {\n    \"className\": \"token property\"\n  }), \"\\\"id\\\"\"), mdx(\"span\", _extends({\n    parentName: \"code\"\n  }, {\n    \"className\": \"token operator\"\n  }), \":\"), \" \", mdx(\"span\", _extends({\n    parentName: \"code\"\n  }, {\n    \"className\": \"token punctuation\"\n  }), \"{\"), \"\\n                        \", mdx(\"span\", _extends({\n    parentName: \"code\"\n  }, {\n    \"className\": \"token property\"\n  }), \"\\\"$id\\\"\"), mdx(\"span\", _extends({\n    parentName: \"code\"\n  }, {\n    \"className\": \"token operator\"\n  }), \":\"), \" \", mdx(\"span\", _extends({\n    parentName: \"code\"\n  }, {\n    \"className\": \"token string\"\n  }), \"\\\"#/properties/data/items/properties/id\\\"\"), mdx(\"span\", _extends({\n    parentName: \"code\"\n  }, {\n    \"className\": \"token punctuation\"\n  }), \",\"), \"\\n                        \", mdx(\"span\", _extends({\n    parentName: \"code\"\n  }, {\n    \"className\": \"token property\"\n  }), \"\\\"type\\\"\"), mdx(\"span\", _extends({\n    parentName: \"code\"\n  }, {\n    \"className\": \"token operator\"\n  }), \":\"), \" \", mdx(\"span\", _extends({\n    parentName: \"code\"\n  }, {\n    \"className\": \"token string\"\n  }), \"\\\"string\\\"\"), mdx(\"span\", _extends({\n    parentName: \"code\"\n  }, {\n    \"className\": \"token punctuation\"\n  }), \",\"), \"\\n                        \", mdx(\"span\", _extends({\n    parentName: \"code\"\n  }, {\n    \"className\": \"token property\"\n  }), \"\\\"default\\\"\"), mdx(\"span\", _extends({\n    parentName: \"code\"\n  }, {\n    \"className\": \"token operator\"\n  }), \":\"), \" \", mdx(\"span\", _extends({\n    parentName: \"code\"\n  }, {\n    \"className\": \"token number\"\n  }), \"0\"), mdx(\"span\", _extends({\n    parentName: \"code\"\n  }, {\n    \"className\": \"token punctuation\"\n  }), \",\"), \"\\n                        \", mdx(\"span\", _extends({\n    parentName: \"code\"\n  }, {\n    \"className\": \"token property\"\n  }), \"\\\"pattern\\\"\"), mdx(\"span\", _extends({\n    parentName: \"code\"\n  }, {\n    \"className\": \"token operator\"\n  }), \":\"), \" \", mdx(\"span\", _extends({\n    parentName: \"code\"\n  }, {\n    \"className\": \"token string\"\n  }), \"\\\"^(.*)$\\\"\"), \"\\n                    \", mdx(\"span\", _extends({\n    parentName: \"code\"\n  }, {\n    \"className\": \"token punctuation\"\n  }), \"}\"), mdx(\"span\", _extends({\n    parentName: \"code\"\n  }, {\n    \"className\": \"token punctuation\"\n  }), \",\"), \"\\n                    \", mdx(\"span\", _extends({\n    parentName: \"code\"\n  }, {\n    \"className\": \"token property\"\n  }), \"\\\"email\\\"\"), mdx(\"span\", _extends({\n    parentName: \"code\"\n  }, {\n    \"className\": \"token operator\"\n  }), \":\"), \" \", mdx(\"span\", _extends({\n    parentName: \"code\"\n  }, {\n    \"className\": \"token punctuation\"\n  }), \"{\"), \"\\n    ...\\n\", mdx(\"span\", _extends({\n    parentName: \"code\"\n  }, {\n    \"className\": \"token punctuation\"\n  }), \"}\")), mdx(\"span\", _extends({\n    parentName: \"pre\"\n  }, {\n    \"aria-hidden\": \"true\",\n    \"className\": \"line-numbers-rows\",\n    \"style\": {\n      \"whiteSpace\": \"normal\",\n      \"width\": \"auto\",\n      \"left\": \"0\"\n    }\n  }), mdx(\"span\", {\n    parentName: \"span\"\n  }), mdx(\"span\", {\n    parentName: \"span\"\n  }), mdx(\"span\", {\n    parentName: \"span\"\n  }), mdx(\"span\", {\n    parentName: \"span\"\n  }), mdx(\"span\", {\n    parentName: \"span\"\n  }), mdx(\"span\", {\n    parentName: \"span\"\n  }), mdx(\"span\", {\n    parentName: \"span\"\n  }), mdx(\"span\", {\n    parentName: \"span\"\n  }), mdx(\"span\", {\n    parentName: \"span\"\n  }), mdx(\"span\", {\n    parentName: \"span\"\n  }), mdx(\"span\", {\n    parentName: \"span\"\n  }), mdx(\"span\", {\n    parentName: \"span\"\n  }), mdx(\"span\", {\n    parentName: \"span\"\n  }), mdx(\"span\", {\n    parentName: \"span\"\n  }), mdx(\"span\", {\n    parentName: \"span\"\n  }), mdx(\"span\", {\n    parentName: \"span\"\n  }), mdx(\"span\", {\n    parentName: \"span\"\n  }), mdx(\"span\", {\n    parentName: \"span\"\n  }), mdx(\"span\", {\n    parentName: \"span\"\n  }), mdx(\"span\", {\n    parentName: \"span\"\n  }), mdx(\"span\", {\n    parentName: \"span\"\n  }), mdx(\"span\", {\n    parentName: \"span\"\n  }), mdx(\"span\", {\n    parentName: \"span\"\n  }), mdx(\"span\", {\n    parentName: \"span\"\n  }), mdx(\"span\", {\n    parentName: \"span\"\n  }), mdx(\"span\", {\n    parentName: \"span\"\n  }), mdx(\"span\", {\n    parentName: \"span\"\n  }), mdx(\"span\", {\n    parentName: \"span\"\n  }), mdx(\"span\", {\n    parentName: \"span\"\n  }), mdx(\"span\", {\n    parentName: \"span\"\n  }), mdx(\"span\", {\n    parentName: \"span\"\n  }), mdx(\"span\", {\n    parentName: \"span\"\n  }), mdx(\"span\", {\n    parentName: \"span\"\n  }), mdx(\"span\", {\n    parentName: \"span\"\n  }), mdx(\"span\", {\n    parentName: \"span\"\n  }), mdx(\"span\", {\n    parentName: \"span\"\n  })))), mdx(\"p\", null, \"In the above Schema, it expects that \", mdx(\"code\", _extends({\n    parentName: \"p\"\n  }, {\n    \"className\": \"language-text\"\n  }), \"max_page\"), \" should be required and must be with the response, however the example of our response does not contain it, so we expect that this will be reported on our test. Aside from that, in the schema it also described that \", mdx(\"code\", _extends({\n    parentName: \"p\"\n  }, {\n    \"className\": \"language-text\"\n  }), \"id\"), \" in the \", mdx(\"code\", _extends({\n    parentName: \"p\"\n  }, {\n    \"className\": \"language-text\"\n  }), \"items\"), \" are \", mdx(\"code\", _extends({\n    parentName: \"p\"\n  }, {\n    \"className\": \"language-text\"\n  }), \"string\"), \" but we will be receiving \", mdx(\"code\", _extends({\n    parentName: \"p\"\n  }, {\n    \"className\": \"language-text\"\n  }), \"number\"), \" instead hence this should also be reported. \"), mdx(\"div\", {\n    \"className\": \"gatsby-highlight\",\n    \"data-language\": \"gherkin\"\n  }, mdx(\"pre\", _extends({\n    parentName: \"div\"\n  }, {\n    \"style\": {\n      \"counterReset\": \"linenumber NaN\"\n    },\n    \"className\": \"language-gherkin line-numbers\"\n  }), mdx(\"code\", _extends({\n    parentName: \"pre\"\n  }, {\n    \"className\": \"language-gherkin\"\n  }), mdx(\"span\", _extends({\n    parentName: \"code\"\n  }, {\n    \"className\": \"token tag\"\n  }), \"@schemachecks\"), \"\\n\", mdx(\"span\", _extends({\n    parentName: \"code\"\n  }, {\n    \"className\": \"token feature\"\n  }), mdx(\"span\", _extends({\n    parentName: \"span\"\n  }, {\n    \"className\": \"token keyword\"\n  }), \"Feature:\"), mdx(\"span\", _extends({\n    parentName: \"span\"\n  }, {\n    \"className\": \"token important\"\n  }), \" Bad Schema Feature Example\"), \"\\n\\tAs Autokin tester\\n\\tI want to verify that all API contracts are correct\\n\\n\"), \"    \", mdx(\"span\", _extends({\n    parentName: \"code\"\n  }, {\n    \"className\": \"token scenario\"\n  }), mdx(\"span\", _extends({\n    parentName: \"span\"\n  }, {\n    \"className\": \"token keyword\"\n  }), \"Scenario:\"), mdx(\"span\", _extends({\n    parentName: \"span\"\n  }, {\n    \"className\": \"token important\"\n  }), \" Perform check on bad schema\")), \"\\n        \", mdx(\"span\", _extends({\n    parentName: \"code\"\n  }, {\n    \"className\": \"token atrule\"\n  }), \"Given\"), \" that a secure endpoint is up at reqres.in\\n        \", mdx(\"span\", _extends({\n    parentName: \"code\"\n  }, {\n    \"className\": \"token atrule\"\n  }), \"Given\"), \" I set Content-Type header to application/json\\n        \", mdx(\"span\", _extends({\n    parentName: \"code\"\n  }, {\n    \"className\": \"token atrule\"\n  }), \"When\"), \" I GET /api/users?page=2\\n        \", mdx(\"span\", _extends({\n    parentName: \"code\"\n  }, {\n    \"className\": \"token atrule\"\n  }), \"Then\"), \" response status code should be 200\\n        \", mdx(\"span\", _extends({\n    parentName: \"code\"\n  }, {\n    \"className\": \"token atrule\"\n  }), \"Then\"), \" I expect response data schema complies to \", mdx(\"span\", _extends({\n    parentName: \"code\"\n  }, {\n    \"className\": \"token string\"\n  }), \"\\\"{schemaBasePath}/resreq-users-schema.json\\\"\"), \"\\n\"), mdx(\"span\", _extends({\n    parentName: \"pre\"\n  }, {\n    \"aria-hidden\": \"true\",\n    \"className\": \"line-numbers-rows\",\n    \"style\": {\n      \"whiteSpace\": \"normal\",\n      \"width\": \"auto\",\n      \"left\": \"0\"\n    }\n  }), mdx(\"span\", {\n    parentName: \"span\"\n  }), mdx(\"span\", {\n    parentName: \"span\"\n  }), mdx(\"span\", {\n    parentName: \"span\"\n  }), mdx(\"span\", {\n    parentName: \"span\"\n  }), mdx(\"span\", {\n    parentName: \"span\"\n  }), mdx(\"span\", {\n    parentName: \"span\"\n  }), mdx(\"span\", {\n    parentName: \"span\"\n  }), mdx(\"span\", {\n    parentName: \"span\"\n  }), mdx(\"span\", {\n    parentName: \"span\"\n  }), mdx(\"span\", {\n    parentName: \"span\"\n  }), mdx(\"span\", {\n    parentName: \"span\"\n  }), mdx(\"span\", {\n    parentName: \"span\"\n  })))), mdx(\"p\", null, \"The last line of our test is a check for Schema compliance. Here Autokin will validate if the response does conforms with our expected schema, if not it should report all errors. Below is an example, where exact error will be presented along with the line numbers if available, so that it will be easier for us to debug and identify the problem.\"), mdx(\"p\", null, mdx(\"img\", _extends({\n    parentName: \"p\"\n  }, {\n    \"src\": \"/docs/4b9f3d9e024af07eae9fbc25e338ea92/bad_schema.png\",\n    \"alt\": \"Bad Schema - JSON Line Details\"\n  }))));\n}\n;\nMDXContent.isMDXComponent = true;"}}},"pageContext":{"isCreatedByStatefulCreatePages":false,"id":"37b07303-49da-5416-8bb8-43638ba3baad","sidebarContents":[{"title":null,"pages":[{"title":"Hello Autokin!","path":"/"},{"title":"Get started","path":"/get-started/"}]},{"title":"Features","pages":[{"title":"Chaining","path":"/features/chaining/"},{"title":"JSON Schema Comparison","path":"/features/json-schema/"},{"title":"Variables","path":"/features/variables/"},{"title":"Autokin Generators","path":"/features/generators/"}]},{"title":"Autokin REST","pages":[{"title":"Given Steps","path":"/autokin-rest/given-steps/"},{"title":"When Steps","path":"/autokin-rest/when-steps/"},{"title":"Then Steps","path":"/autokin-rest/then-steps/"}]}],"typescriptApiBox":{"data":{},"filepathPrefix":"packages/autokin/src/"},"versions":[],"defaultVersion":1.8,"baseUrl":"https://www.autokinjs.com"}}}